<?xml version="1.0" encoding="UTF-8"?>
<svg height="128px" viewBox="0 0 128 128" width="128px" xmlns="http://www.w3.org/2000/svg">
    <path d="m 64.015625 3.464844 c -35.445313 -0.5 -61.769531 30.039062 -60 62.695312 c 2.082031 38.460938 29.417969 57.785156 61.390625 57.566406 c 33.585938 -0.230468 59.074219 -24.183593 58.375 -60.367187 c -0.6875 -36.121094 -27.09375 -59.421875 -59.765625 -59.894531 z m 0 0" fill="#c8c8c8"/>
    <path d="m 35.988281 14.660156 c -24.808593 14.304688 -40.554687 54.855469 -14.132812 85.535156 c 3.234375 3.753907 8.371093 6.375 12.273437 8.160157 c 26.644532 12.117187 58.886719 -6.515625 71.359375 -20.722657 c 9.902344 -11.273437 13.542969 -18.75 12.367188 -34.140624 c -0.910157 -11.96875 -6 -23.523438 -16.546875 -32.066407 c -23.847656 -19.355469 -49.566406 -15.863281 -65.320313 -6.765625 z m 0 0" fill="#ffffff"/>
    <g fill="#171717">
        <path d="m 60.972656 39.335938 c -0.089844 -0.050782 -9.320312 -5.378907 -16.484375 -8.050782 c -7.464843 -2.78125 -12.972656 -4.277344 -13.03125 -4.289062 l 1.027344 -3.875 c 0.230469 0.0625 5.738281 1.546875 13.390625 4.410156 c 7.484375 2.789062 16.707031 8.109375 17.09375 8.339844 z m 0 0"/>
        <path d="m 77.207031 28.859375 l 5.429688 -19.496094 l 3.84375 1.082031 l -5.429688 19.496094 z m 0 0"/>
        <path d="m 117.554688 54.125 c -0.050782 -0.019531 -5.359376 -2.050781 -11.285157 -3.664062 c -4.460937 -1.214844 -10.210937 -2.449219 -10.269531 -2.460938 l 0.828125 -3.925781 c 0.238281 0.050781 5.90625 1.265625 10.476563 2.511719 c 6.136718 1.664062 11.449218 3.703124 11.675781 3.785156 z m 0 0"/>
        <path d="m 86.152344 93.519531 c 0 -0.0625 -0.5 -6.1875 -1.699219 -12.449219 c -1.1875 -6.183593 -3.453125 -12.007812 -3.472656 -12.058593 l 3.714843 -1.476563 c 0.097657 0.253906 2.421876 6.214844 3.679688 12.78125 c 1.238281 6.496094 1.738281 12.628906 1.757812 12.890625 z m 0 0"/>
        <path d="m 106 99.097656 l -2.636719 -3.019531 c 0.042969 -0.03125 3.875 -3.445313 8.601563 -9.867187 c 4.371094 -5.945313 6.386718 -11.144532 6.40625 -11.207032 l 3.722656 1.4375 c -0.089844 0.230469 -2.234375 5.773438 -6.925781 12.148438 c -4.996094 6.804687 -9 10.359375 -9.167969 10.507812 z m 0 0"/>
        <path d="m 32.980469 78.578125 l 23.089843 -20.738281 l 2.660157 2.996094 l -23.09375 20.738281 z m 0 0"/>
        <path d="m 13.085938 73.027344 c -0.0625 -0.390625 -1.378907 -9.675782 -1.378907 -18.171875 c 0 -8.472657 0.957031 -16.3125 1.007813 -16.644531 l 3.960937 0.503906 c -0.007812 0.078125 -0.964843 7.929687 -0.964843 16.140625 c 0 8.191406 1.324218 17.507812 1.335937 17.601562 z m 0 0"/>
        <path d="m 71.351562 113.484375 c -0.25 -0.027344 -6.335937 -0.800781 -16.863281 -3.914063 c -6.707031 -1.988281 -14.371093 -6.0625 -14.699219 -6.234374 l 1.875 -3.542969 c 0.082032 0.039062 7.632813 4.066406 13.949219 5.933593 c 10.179688 3.011719 16.167969 3.773438 16.226563 3.785157 z m 0 0"/>
    </g>
    <path d="m 53.460938 32.238281 c -0.3125 0.785157 0.097656 28.742188 0.726562 29.574219 c 0.628906 0.835938 28.570312 10.382812 29.816406 10.070312 c 1.25 -0.3125 16.15625 -23.914062 16.15625 -24.855468 c 0 -0.945313 -18.339844 -23.703125 -19.277344 -23.914063 c -0.9375 -0.210937 -27.003906 8.070313 -27.421874 9.125 z m 0 0" fill="#474c4f"/>
    <path d="m 117.316406 35.671875 s -4.113281 13.765625 -4.113281 14.816406 c 0 1.046875 2.503906 6.816407 3.652344 13.945313 c 1.148437 7.128906 -0.519531 17.832031 0.210937 18.25 c 0.726563 0.421875 4.339844 0.210937 4.339844 0.210937 s 3.484375 -11.011719 2.015625 -25.167969 c -1.464844 -14.164062 -6.105469 -22.054687 -6.105469 -22.054687 z m 0 0" fill="#474c4f"/>
    <path d="m 87.65625 90.445312 c -0.835938 0.082032 -22.832031 19.085938 -22.730469 19.617188 c 0.097657 0.523438 8.613281 13.140625 8.613281 13.140625 s 10.695313 -0.851563 20.496094 -6.195313 c 9.796875 -5.339843 13.519532 -10.085937 13.519532 -10.085937 s 1.359374 -12.691406 0.839843 -12.792969 c -0.507812 -0.121094 -19.6875 -3.785156 -20.738281 -3.683594 z m 0 0" fill="#474c4f"/>
    <path d="m 14.261719 66.742188 c -0.570313 0.472656 -3.863281 7.761718 -4.800781 11.855468 c -0.9375 4.085938 -1.457032 7.972656 -1.457032 7.972656 s 2.507813 7.289063 6.257813 12.691407 c 4.652343 6.683593 10.699219 11.402343 10.699219 11.402343 s 19.738281 -6.054687 19.847656 -6.894531 c 0.109375 -0.84375 -2.296875 -8.183593 -3.960938 -14.265625 c -1.667968 -6.085937 -1.976562 -12.902344 -2.605468 -13.324218 c -0.628907 -0.421876 -6.984376 -2.410157 -11.984376 -4.40625 c -5 -2 -11.367187 -5.550782 -11.996093 -5.03125 z m 0 0" fill="#474c4f"/>
    <path d="m 8.074219 41.433594 s 5.460937 4.75 6.296875 4.75 c 0.839844 0 6.128906 -7.046875 11.464844 -11.324219 c 7.195312 -5.773437 10.738281 -7.660156 10.847656 -8.394531 c 0.101562 -0.730469 3.234375 -18.25 3.234375 -18.25 s -11.574219 4.40625 -20.019531 14.15625 c -8.441407 9.746094 -11.824219 19.0625 -11.824219 19.0625 z m 0 0" fill="#474c4f"/>
    <path d="m 67.109375 3.535156 s 6.65625 3.445313 9.082031 5.140625 c 2.425782 1.699219 5.996094 5.292969 7.054688 5.402344 c 1.046875 0.109375 15.527344 0.121094 15.527344 0.121094 s -6.566407 -4.519531 -13.839844 -7.109375 c -8.75 -3.121094 -17.824219 -3.554688 -17.824219 -3.554688 z m 0 0" fill="#474c4f"/>
</svg>
